<svg width="153" height="30" viewBox="0 0 153 30" fill="none" xmlns="http://www.w3.org/2000/svg">
<path fill-rule="evenodd" clip-rule="evenodd" d="M47.9696 11.9782H31.7249L31.8709 11.4515C31.9044 11.3279 31.937 11.2063 31.9753 11.0865C32.3051 10.0519 32.8145 9.13898 33.4893 8.37333C34.1053 7.67432 34.8457 7.08309 35.6899 6.6159C36.4493 6.19578 37.2814 5.90076 38.163 5.73902C38.8654 5.61001 39.6198 5.56614 40.4049 5.60942C41.1166 5.64819 41.8069 5.76831 42.4573 5.96622C43.213 6.19649 43.9218 6.531 44.5637 6.96084C45.0993 7.31954 45.5539 7.69637 45.9533 8.11317C46.733 8.92614 47.3071 9.88234 47.6602 10.9549C47.7087 11.1019 47.7524 11.2506 47.7978 11.4046L47.9696 11.9782ZM39.8482 0.0791016C39.3017 0.0791016 38.7698 0.106849 38.2621 0.161868C37.5519 0.238825 36.8624 0.364517 36.2125 0.535386C34.8568 0.89171 33.5506 1.46622 32.3302 2.24278C31.077 3.03997 29.9574 4.01515 29.0027 5.14104C28.4701 5.7695 27.9837 6.44811 27.5576 7.15827C27.1114 7.90139 26.7275 8.68388 26.416 9.48428C26.0574 10.4054 25.7922 11.3832 25.6275 12.3906C25.5054 13.1395 25.4348 13.8857 25.4171 14.6087C25.3926 15.6139 25.4581 16.6172 25.6121 17.5907C25.7479 18.4493 25.9515 19.277 26.2179 20.0509C26.5885 21.1285 27.0811 22.1619 27.6824 23.123C28.2591 24.0445 28.9175 24.8863 29.6385 25.6249C30.4704 26.477 31.4184 27.2356 32.4557 27.8795C33.5272 28.545 34.6673 29.0598 35.8447 29.4101C37.1109 29.7867 38.4532 29.9848 39.835 29.9988C40.8433 30.0108 41.8468 29.9347 42.8104 29.7779C43.7569 29.624 44.6221 29.4062 45.4553 29.1126C47.1247 28.5236 48.6739 27.6438 50.0603 26.4975C50.8968 25.8058 51.6441 25.0127 52.2817 24.1399C52.8585 23.3502 53.3471 22.4673 53.7364 21.5112H53.0937C50.9608 21.5119 48.829 21.5114 46.6968 21.5092C46.1272 22.3406 45.3698 22.9931 44.442 23.4524C43.5105 23.9138 42.4724 24.1944 41.2684 24.3103C40.4821 24.3857 39.7738 24.3894 39.1025 24.3208C38.449 24.2539 37.852 24.1282 37.2771 23.9366C36.3336 23.6216 35.454 23.1334 34.6635 22.4857C33.9603 21.9096 33.362 21.2609 32.8851 20.5574C32.3351 19.7462 31.9423 18.8661 31.7177 17.9414C31.6872 17.8165 31.6599 17.6905 31.6314 17.5603L31.5133 17.0258H54.1376C54.2325 16.3773 54.2787 15.7059 54.2754 15.027C54.2702 13.9715 54.1719 12.9438 53.9836 11.9725C53.7699 10.8704 53.4302 9.7972 52.9743 8.78242C52.4123 7.5325 51.6895 6.36689 50.8263 5.31831C49.8898 4.18092 48.7883 3.18962 47.5514 2.37179C46.8038 1.87732 46.0247 1.46005 45.236 1.13124C44.3573 0.76507 43.4379 0.491631 42.5029 0.318983C41.7633 0.182382 41.0121 0.10341 40.2701 0.0844375C40.1287 0.0808802 39.9879 0.0791016 39.8482 0.0791016Z" fill="white"/>
<path fill-rule="evenodd" clip-rule="evenodd" d="M118.304 11.9782H102.06L102.206 11.4515C102.239 11.3279 102.272 11.2063 102.31 11.0865C102.64 10.0519 103.149 9.13898 103.824 8.37333C104.44 7.67432 105.181 7.08309 106.025 6.6159C106.784 6.19578 107.616 5.90076 108.498 5.73902C109.2 5.61001 109.955 5.56614 110.74 5.60942C111.451 5.64819 112.142 5.76831 112.792 5.96622C113.548 6.19649 114.257 6.531 114.899 6.96084C115.434 7.31954 115.889 7.69637 116.288 8.11317C117.068 8.92614 117.642 9.88234 117.995 10.9549C118.044 11.1019 118.087 11.2506 118.133 11.4046L118.304 11.9782ZM110.183 0.0791016C109.637 0.0791016 109.105 0.106849 108.597 0.161868C107.887 0.238825 107.197 0.364517 106.547 0.535386C105.192 0.89171 103.886 1.46622 102.665 2.24278C101.412 3.03997 100.292 4.01515 99.3376 5.14104C98.8049 5.7695 98.3187 6.44811 97.8925 7.15827C97.4464 7.90139 97.0623 8.68388 96.7509 9.48428C96.3924 10.4054 96.1271 11.3832 95.9625 12.3906C95.8404 13.1395 95.7697 13.8857 95.7522 14.6087C95.7274 15.6139 95.7929 16.6172 95.947 17.5907C96.0827 18.4493 96.2864 19.277 96.5527 20.0509C96.9235 21.1285 97.4161 22.1619 98.0174 23.123C98.5941 24.0445 99.2524 24.8863 99.9734 25.6249C100.805 26.477 101.753 27.2356 102.791 27.8795C103.862 28.545 105.002 29.0598 106.18 29.4101C107.446 29.7867 108.788 29.9848 110.17 29.9988C111.178 30.0108 112.182 29.9347 113.145 29.7779C114.092 29.624 114.957 29.4062 115.79 29.1126C117.459 28.5236 119.009 27.6438 120.395 26.4975C121.232 25.8058 121.979 25.0127 122.616 24.1399C123.193 23.3502 123.682 22.4673 124.072 21.5112H123.429C121.296 21.5119 119.164 21.5114 117.032 21.5092C116.462 22.3406 115.705 22.9931 114.777 23.4524C113.845 23.9138 112.807 24.1944 111.603 24.3103C110.817 24.3857 110.109 24.3894 109.437 24.3208C108.784 24.2539 108.187 24.1282 107.612 23.9366C106.668 23.6216 105.789 23.1334 104.998 22.4857C104.295 21.9096 103.697 21.2609 103.22 20.5574C102.67 19.7462 102.277 18.8661 102.053 17.9414C102.022 17.8165 101.995 17.6905 101.966 17.5603L101.848 17.0258H124.473C124.567 16.3773 124.613 15.7059 124.61 15.027C124.605 13.9715 124.507 12.9438 124.319 11.9725C124.105 10.8704 123.766 9.7972 123.309 8.78242C122.748 7.5325 122.024 6.36689 121.161 5.31831C120.224 4.18092 119.124 3.18962 117.886 2.37179C117.139 1.87732 116.36 1.46005 115.571 1.13124C114.692 0.76507 113.773 0.491631 112.838 0.318983C112.098 0.182382 111.347 0.10341 110.605 0.0844375C110.464 0.0808802 110.323 0.0791016 110.183 0.0791016Z" fill="white"/>
<path fill-rule="evenodd" clip-rule="evenodd" d="M0 29.8623H6.13821V6.2513H18.5862V0.216797H0V29.8623Z" fill="white"/>
<path fill-rule="evenodd" clip-rule="evenodd" d="M134.387 29.8623H140.526V6.2513H152.974V0.216797H134.387V29.8623Z" fill="white"/>
<path fill-rule="evenodd" clip-rule="evenodd" d="M65.3398 29.8623H71.4781V17.0158H83.659V11.9955H71.4781V5.9768H88.1992V0.216797H65.3398V29.8623Z" fill="white"/>
</svg>
